…
    ## 
    ## FALSE  TRUE 
    ##  2288  4794

``` r
namsCorr = gsub("_status","status",gsub("_cluster","cluster", gsub("_clone","clone", unique(as.character(Common$V1)))))

#check how many are reconstructed as complete
allGMAPmSelMakerfreq[as.character(allGMAPmSelMakerfreq$query) %in% as.character(Common$V1),] %>% group_by(species) %>% count(value)
```

    ## # A tibble: 24 x 3
    ## # Groups:   species [3]
    ##    species value     n
    ##     <fctr> <int> <int>
    ##  1    PG29     1  3932
    ##  2    PG29     2   688
    ##  3    PG29     3   135
    ##  4    PG29     4    29
    ##  5    PG29     5     2
    ##  6    PG29     6     2
    ##  7    PG29     8     1
    ##  8    PG29    10     4
    ##  9    Q903     1  3575
    ## 10    Q903     2   320
    ## # ... with 14 more rows
…
